{
    "name": "ModelVersion",
    "fields": [
        {
            "fieldName": "version",
            "fieldType": "Integer",
            "fieldValidateRules": [
                "required"
            ]
        },
        {
            "fieldName": "creationDate",
            "fieldType": "LocalDate"
        },
        {
            "fieldName": "srcPath",
            "fieldType": "String"
        },
        {
            "fieldName": "srcContent",
            "fieldType": "byte[]",
            "fieldTypeBlobContent": "text"
        },
        {
            "fieldName": "description",
            "fieldType": "String"
        }
    ],
    "relationships": [
        {
            "relationshipType": "many-to-one",
            "relationshipName": "modelDef",
            "otherEntityName": "modelDef",
            "otherEntityField": "id"
        }
    ],
    "changelogDate": "20181004120730",
    "entityTableName": "model_version",
    "dto": "mapstruct",
    "pagination": "infinite-scroll",
    "service": "serviceClass",
    "jpaMetamodelFiltering": false,
    "fluentMethods": true,
    "clientRootFolder": "",
    "applications": "*"
}