{
    "name": "Plant",
    "fields": [
        {
            "fieldName": "name",
            "fieldType": "String",
            "fieldValidateRules": [
                "required"
            ]
        },
        {
            "fieldName": "productiveCapacity",
            "fieldType": "Integer",
            "fieldValidateRules": [
                "required"
            ]
        },
        {
            "fieldName": "address",
            "fieldType": "String"
        },
        {
            "fieldName": "latitude",
            "fieldType": "Double"
        },
        {
            "fieldName": "longitude",
            "fieldType": "Double"
        }
    ],
    "relationships": [],
    "changelogDate": "20181004120750",
    "entityTableName": "plant",
    "dto": "mapstruct",
    "pagination": "infinite-scroll",
    "service": "serviceClass",
    "jpaMetamodelFiltering": false,
    "fluentMethods": true,
    "clientRootFolder": "",
    "applications": "*"
}